{
    "env": {
        "PATH": "$(PATH):$(HOME)\/.local\/bin"
    },
    "apps": [
        {
            "name": "Desktop",
            "image-path": "desktop.png",
            "exclude-global-prep-cmd": "false",
            "auto-detach": "true",
            "wait-all": "true",
            "exit-timeout": "5"
        },
        {
            "name": "Desktop (No Prep)",
            "output": "",
            "cmd": "",
            "exclude-global-prep-cmd": "true",
            "elevated": "false",
            "auto-detach": "true",
            "wait-all": "true",
            "exit-timeout": "5",
            "image-path": ""
        },
        {
            "name": "Final Fantasy XIV Online",
            "output": "",
            "cmd": "",
            "exclude-global-prep-cmd": "false",
            "elevated": "false",
            "wait-all": "true",
            "exit-timeout": "20",
            "image-path": "\/home\/xenhat\/.config\/sunshine\/covers\/igdb_386.png",
            "auto-detach": "true",
            "detached": [
                "bash -c \/home\/xenhat\/code\/xenhat\/ffxiv_wrappers\/FinalFantasyXIVOnline"
            ]
        },
        {
            "name": "Genshin Impact",
            "output": "",
            "cmd": "an-anime-game-launcher",
            "exclude-global-prep-cmd": "false",
            "elevated": "false",
            "auto-detach": "true",
            "wait-all": "true",
            "exit-timeout": "5",
            "image-path": "\/home\/xenhat\/.config\/sunshine\/covers\/igdb_119277.png"
        },
        {
            "name": "Honkai: Star Rail",
            "output": "",
            "cmd": "the-honkers-railway-launcher",
            "exclude-global-prep-cmd": "false",
            "elevated": "false",
            "auto-detach": "true",
            "wait-all": "true",
            "exit-timeout": "5",
            "image-path": "\/home\/xenhat\/.config\/sunshine\/covers\/igdb_178282.png"
        },
        {
            "name": "MoonDeckStream",
            "output": "",
            "cmd": "MoonDeckStream",
            "exclude-global-prep-cmd": "false",
            "elevated": "false",
            "auto-detach": "true",
            "prep-cmd": [
                {
                    "do": "",
                    "undo": ""
                }
            ],
            "image-path": "",
            "wait-all": "true",
            "exit-timeout": "5",
            "working-dir": "$HOME"
        },
        {
            "name": "Steam",
            "output": "",
            "cmd": "",
            "exclude-global-prep-cmd": "false",
            "elevated": "false",
            "auto-detach": "true",
            "wait-all": "true",
            "exit-timeout": "5",
            "image-path": ""
        },
        {
            "name": "Zenless Zone Zero",
            "output": "",
            "elevated": "false",
            "exit-timeout": "10",
            "image-path": "\/home\/xenhat\/.config\/sunshine\/covers\/igdb_200551.png",
            "working-dir": "",
            "cmd": "sleepy-launcher",
            "exclude-global-prep-cmd": "false",
            "auto-detach": "true",
            "wait-all": "true"
        }
    ]
}
