[
  {
    "clean": ["~/.config/fish"]
  },
  {
    "link": {
      "~/.config/fish/completions": {
        "force": true,
        "relink": true,
        "create": true
      },
      "~/.config/fish/conf.d": {
        "force": true,
        "relink": true,
        "create": true
      },
      "~/.config/fish/functions": {
        "force": true,
        "relink": true,
        "create": true
      },
      "~/.config/fish/config.fish": {
        "force": true,
        "relink": true,
        "create": true
      },
      "~/.config/fish/fish_variables": {
        "force": true,
        "relink": true,
        "create": true
      }
    }
  }
]
